<?xml version="1.0" encoding="UTF-8" standalone="no"?>
<svg
   xmlns:dc="http://purl.org/dc/elements/1.1/"
   xmlns:cc="http://creativecommons.org/ns#"
   xmlns:rdf="http://www.w3.org/1999/02/22-rdf-syntax-ns#"
   xmlns:svg="http://www.w3.org/2000/svg"
   xmlns="http://www.w3.org/2000/svg"
   focusable="false"
   viewBox="0 0 24 24"
   aria-hidden="true"
   data-testid="StackedLineChartIcon"
   version="1.1"
   id="svg92">
  <metadata
     id="metadata98">
    <rdf:RDF>
      <cc:Work
         rdf:about="">
        <dc:format>image/svg+xml</dc:format>
        <dc:type
           rdf:resource="http://purl.org/dc/dcmitype/StillImage" />
        <dc:title></dc:title>
      </cc:Work>
    </rdf:RDF>
  </metadata>
  <defs
     id="defs96" />
  <path
     d="m2 19.99 7.5-7.51 4 4 7.09-7.97L22 9.92l-8.5 9.56-4-4-6 6.01-1.5-1.5zm1.5-4.5 6-6.01 4 4L22 3.92l-1.41-1.41-7.09 7.97-4-4L2 13.99l1.5 1.5z"
     id="path90" />
</svg>
